all-mips/mips_tb.vcd
$date
  Wed Oct  1 02:56:48 2014
$end
$version
  GHDL v0
$end
$timescale
  1 fs
$end
$var reg 1 ! reset_s $end
$var reg 1 " clk_s $end
$var reg 1 # dump_s $end
$var reg 32 $ instr_s[31:0] $end
$var reg 32 % pc_s[31:0] $end
$scope module mapping $end
$var reg 1 & reset $end
$var reg 1 ' clk $end
$var reg 1 ( dump $end
$var reg 32 ) instr[31:0] $end
$var reg 32 * pc[31:0] $end
$var reg 32 + instr_s[31:0] $end
$var reg 32 , pc_s[31:0] $end
$var reg 1 - memtoreg_s $end
$var reg 1 . memwrite_s $end
$var reg 1 / branch_s $end
$var reg 1 0 alusrc_s $end
$var reg 1 1 regdst_s $end
$var reg 1 2 regwrite_s $end
$var reg 1 3 jump_s $end
$var reg 3 4 alucontrol_s[2:0] $end
$var reg 1 5 dump_s $end
$var reg 1 6 clk_s $end
$var reg 1 7 reset_s $end
$scope module dp $end
$var reg 1 8 clk $end
$var reg 1 9 reset $end
$var reg 1 : memtoreg $end
$var reg 1 ; branch $end
$var reg 1 < alusrc $end
$var reg 1 = regdst $end
$var reg 1 > regwrite $end
$var reg 1 ? jump $end
$var reg 3 @ alucontrol[2:0] $end
$var reg 32 A pc[31:0] $end
$var reg 32 B instr[31:0] $end
$var reg 1 C memwrite $end
$var reg 1 D dump $end
$var reg 32 E instrprima[31:0] $end
$var reg 32 F pcplus4[31:0] $end
$var reg 1 G zero $end
$var reg 32 H pcjump[31:0] $end
$var reg 1 I pcsrc $end
$var reg 32 J pcnext[31:0] $end
$var reg 32 K pcsrc_signal0[31:0] $end
$var reg 32 L pcbranch[31:0] $end
$var reg 32 M pcprima[31:0] $end
$var reg 32 N pcprimanext[31:0] $end
$var reg 5 O writereg[4:0] $end
$var reg 32 P result[31:0] $end
$var reg 32 Q srca[31:0] $end
$var reg 32 R srcb[31:0] $end
$var reg 32 S writedata[31:0] $end
$var reg 32 T signimm[31:0] $end
$var reg 32 U shifteradder[31:0] $end
$var reg 32 V aluresult[31:0] $end
$var reg 32 W readdata[31:0] $end
$scope module pcsrc_mux $end
$var reg 32 X d0[31:0] $end
$var reg 32 Y d1[31:0] $end
$var reg 1 Z s $end
$var reg 32 [ y[31:0] $end
$upscope $end
$scope module pcjump_mux $end
$var reg 32 \ d0[31:0] $end
$var reg 32 ] d1[31:0] $end
$var reg 1 ^ s $end
$var reg 32 _ y[31:0] $end
$upscope $end
$scope module pc_ff $end
$var reg 32 ` d[31:0] $end
$var reg 1 a clk $end
$var reg 1 b reset $end
$var reg 32 c q[31:0] $end
$upscope $end
$scope module imem_instance $end
$var reg 6 d a[5:0] $end
$var reg 32 e rd[31:0] $end
$upscope $end
$scope module pcplus_adder $end
$var reg 32 f a[31:0] $end
$var reg 32 g b[31:0] $end
$var reg 32 h y[31:0] $end
$upscope $end
$scope module regfile_instance $end
$var reg 1 i clk $end
$var reg 1 j we3 $end
$var reg 5 k ra1[4:0] $end
$var reg 5 l ra2[4:0] $end
$var reg 5 m wa3[4:0] $end
$var reg 32 n wd3[31:0] $end
$var reg 32 o rd1[31:0] $end
$var reg 32 p rd2[31:0] $end
$var reg 32 q reg_out1[31:0] $end
$var reg 32 r reg_out2[31:0] $end
$upscope $end
$scope module signext_instan $end
$var reg 16 s a[15:0] $end
$var reg 32 t y[31:0] $end
$upscope $end
$scope module writereg_mux $end
$var reg 5 u d0[4:0] $end
$var reg 5 v d1[4:0] $end
$var reg 1 w s $end
$var reg 5 x y[4:0] $end
$upscope $end
$scope module aluin $end
$var reg 32 y d0[31:0] $end
$var reg 32 z d1[31:0] $end
$var reg 1 { s $end
$var reg 32 | y[31:0] $end
$upscope $end
$scope module sl2_adder $end
$var reg 32 } a[31:0] $end
$var reg 32 !" y[31:0] $end
$upscope $end
$scope module adderbranch $end
$var reg 32 "" a[31:0] $end
$var reg 32 #" b[31:0] $end
$var reg 32 $" y[31:0] $end
$upscope $end
$scope module aluinstance $end
$var reg 32 %" a[31:0] $end
$var reg 32 &" b[31:0] $end
$var reg 3 '" alucontrol[2:0] $end
$var reg 1 (" zero $end
$var reg 32 )" result[31:0] $end
$var reg 32 *" reg1[31:0] $end
$var reg 32 +" reg2[31:0] $end
$var reg 32 ," result_buf[31:0] $end
$upscope $end
$scope module memorydata $end
$var reg 1 -" clk $end
$var reg 1 ." we $end
$var reg 32 /" a[31:0] $end
$var reg 32 0" wd[31:0] $end
$var reg 32 1" rd[31:0] $end
$var reg 1 2" dump $end
$comment mem is not handled $end
$upscope $end
$scope module memdatamux $end
$var reg 32 3" d0[31:0] $end
$var reg 32 4" d1[31:0] $end
$var reg 1 5" s $end
$var reg 32 6" y[31:0] $end
$upscope $end
$upscope $end
$scope module control $end
$var reg 6 7" op[5:0] $end
$var reg 6 8" funct[5:0] $end
$var reg 1 9" memtoreg $end
$var reg 1 :" memwrite $end
$var reg 1 ;" alusrc $end
$var reg 1 <" regdst $end
$var reg 1 =" regwrite $end
$var reg 1 >" jump $end
$var reg 1 ?" branch $end
$var reg 3 @" alucontrol[2:0] $end
$var reg 2 A" alucontrol_signal[1:0] $end
$scope module maindec_instance $end
$var reg 6 B" op[5:0] $end
$var reg 1 C" memtoreg $end
$var reg 1 D" memwrite $end
$var reg 1 E" branch $end
$var reg 1 F" alusrc $end
$var reg 1 G" regdst $end
$var reg 1 H" regwrite $end
$var reg 1 I" jump $end
$var reg 2 J" aluop[1:0] $end
$upscope $end
$scope module aludecoder_instance $end
$var reg 6 K" funct[5:0] $end
$var reg 2 L" aluop[1:0] $end
$var reg 3 M" alucontrol[2:0] $end
$var reg 3 N" control[2:0] $end
$upscope $end
$upscope $end
$upscope $end
$enddefinitions $end
#0
1!
1"
0#
b00100000000010000000000000000000 $
b00000000000000000000000000000000 %
1&
1'
0(
b00100000000010000000000000000000 )
b00000000000000000000000000000000 *
b00100000000010000000000000000000 +
b00000000000000000000000000000000 ,
0-
0.
0/
10
01
12
03
bUUU 4
U5
U6
U7
18
19
0:
0;
1<
0=
1>
0?
bUUU @
b00000000000000000000000000000000 A
b00100000000010000000000000000000 B
0C
0D
b00100000000010000000000000000000 E
b00000000000000000000000000000001 F
0G
b00000000001000000000000000000000 H
0I
b00000000000000000000000000000001 J
bUUUUUUUUUUUUUUUUUUUUUUUUUUUUUUUU K
b00000000000000000000000000000001 L
b00000000000000000000000000000001 M
b00000000000000000000000000000000 N
b01000 O
bUUUUUUUUUUUUUUUUUUUUUUUUUUUUUUUU P
b00000000000000000000000000000000 Q
b00000000000000000000000000000000 R
bUUUUUUUUUUUUUUUUUUUUUUUUUUUUUUUU S
b00000000000000000000000000000000 T
b00000000000000000000000000000000 U
bUUUUUUUUUUUUUUUUUUUUUUUUUUUUUUUU V
bUUUUUUUUUUUUUUUUUUUUUUUUUUUUUUUU W
b00000000000000000000000000000001 X
b00000000000000000000000000000001 Y
0Z
b00000000000000000000000000000001 [
b00000000000000000000000000000001 \
b00000000001000000000000000000000 ]
0^
b00000000000000000000000000000001 _
b00000000000000000000000000000001 `
1a
1b
b00000000000000000000000000000000 c
b000000 d
b00100000000010000000000000000000 e
b00000000000000000000000000000000 f
b00000000000000000000000000000001 g
b00000000000000000000000000000001 h
1i
1j
b00000 k
b01000 l
b01000 m
bUUUUUUUUUUUUUUUUUUUUUUUUUUUUUUUU n
b00000000000000000000000000000000 o
bUUUUUUUUUUUUUUUUUUUUUUUUUUUUUUUU p
bUUUUUUUUUUUUUUUUUUUUUUUUUUUUUUUU q
bUUUUUUUUUUUUUUUUUUUUUUUUUUUUUUUU r
b0000000000000000 s
b00000000000000000000000000000000 t
b01000 u
b00000 v
0w
b01000 x
bUUUUUUUUUUUUUUUUUUUUUUUUUUUUUUUU y
b00000000000000000000000000000000 z
1{
b00000000000000000000000000000000 |
b00000000000000000000000000000000 }
b00000000000000000000000000000000 !"
b00000000000000000000000000000000 ""
b00000000000000000000000000000001 #"
b00000000000000000000000000000001 $"
b00000000000000000000000000000000 %"
b00000000000000000000000000000000 &"
bUUU '"
0("
bUUUUUUUUUUUUUUUUUUUUUUUUUUUUUUUU )"
bUUUUUUUUUUUUUUUUUUUUUUUUUUUUUUUU *"
bUUUUUUUUUUUUUUUUUUUUUUUUUUUUUUUU +"
bUUUUUUUUUUUUUUUUUUUUUUUUUUUUUUUU ,"
1-"
0."
bUUUUUUUUUUUUUUUUUUUUUUUUUUUUUUUU /"
bUUUUUUUUUUUUUUUUUUUUUUUUUUUUUUUU 0"
bUUUUUUUUUUUUUUUUUUUUUUUUUUUUUUUU 1"
02"
bUUUUUUUUUUUUUUUUUUUUUUUUUUUUUUUU 3"
bUUUUUUUUUUUUUUUUUUUUUUUUUUUUUUUU 4"
05"
bUUUUUUUUUUUUUUUUUUUUUUUUUUUUUUUU 6"
b001000 7"
b000000 8"
09"
0:"
1;"
0<"
1="
0>"
0?"
bUUU @"
b00 A"
b001000 B"
0C"
0D"
0E"
1F"
0G"
1H"
0I"
b00 J"
b000000 K"
b00 L"
bUUU M"
b010 N"
#100000000
0"
0'
08
0a
0i
0-"
#200000000
0!
1"
b00100000000010010000000000000001 $
b00000000000000000000000000000001 %
0&
1'
b00100000000010010000000000000001 )
b00000000000000000000000000000001 *
b00100000000010010000000000000001 +
b00000000000000000000000000000001 ,
b010 4
18
09
b010 @
b00000000000000000000000000000001 A
b00100000000010010000000000000001 B
b00100000000010010000000000000001 E
b00000000000000000000000000000010 F
b00000000001001000000000000000100 H
b00000000000000000000000000000010 J
b00000000000000000000000000000010 L
b00000000000000000000000000000010 M
b00000000000000000000000000000001 N
b01001 O
b00000000000000000000000000000001 R
b00000000000000000000000000000001 T
b00000000000000000000000000000010 X
b00000000000000000000000000000010 Y
b00000000000000000000000000000010 [
b00000000000000000000000000000010 \
b00000000001001000000000000000100 ]
b00000000000000000000000000000010 _
b00000000000000000000000000000010 `
1a
0b
b00000000000000000000000000000001 c
b000001 d
b00100000000010010000000000000001 e
b00000000000000000000000000000001 f
b00000000000000000000000000000010 h
1i
b01001 l
b01001 m
b0000000000000001 s
b00000000000000000000000000000001 t
b01001 u
b01001 x
b00000000000000000000000000000001 z
b00000000000000000000000000000001 |
b00000000000000000000000000000001 }
b00000000000000000000000000000000 !"
b00000000000000000000000000000010 #"
b00000000000000000000000000000010 $"
b00000000000000000000000000000001 &"
b010 '"
b00000000000000000000000000000001 ,"
1-"
b000001 8"
b010 @"
b000001 K"
b010 M"
#300000000
0"
0'
08
0a
0i
0-"
#400000000
1"
b00100000000010100000000000000010 $
b00000000000000000000000000000010 %
1'
b00100000000010100000000000000010 )
b00000000000000000000000000000010 *
b00100000000010100000000000000010 +
b00000000000000000000000000000010 ,
18
b00000000000000000000000000000010 A
b00100000000010100000000000000010 B
b00100000000010100000000000000010 E
b00000000000000000000000000000011 F
b00000000001010000000000000001000 H
b00000000000000000000000000000011 J
b00000000000000000000000000000111 L
b00000000000000000000000000000011 M
b00000000000000000000000000000010 N
b01010 O
b00000000000000000000000000000001 P
b00000000000000000000000000000010 R
b00000000000000000000000000000010 T
b00000000000000000000000000000100 U
b00000000000000000000000000000001 V
b00000000000000000000000000000011 X
b00000000000000000000000000000111 Y
b00000000000000000000000000000011 [
b00000000000000000000000000000011 \
b00000000001010000000000000001000 ]
b00000000000000000000000000000011 _
b00000000000000000000000000000011 `
1a
b00000000000000000000000000000010 c
b000010 d
b00100000000010100000000000000010 e
b00000000000000000000000000000010 f
b00000000000000000000000000000011 h
1i
b01010 l
b01010 m
b00000000000000000000000000000001 n
b0000000000000010 s
b00000000000000000000000000000010 t
b01010 u
b01010 x
b00000000000000000000000000000010 z
b00000000000000000000000000000010 |
b00000000000000000000000000000010 }
b00000000000000000000000000000100 !"
b00000000000000000000000000000100 ""
b00000000000000000000000000000011 #"
b00000000000000000000000000000111 $"
b00000000000000000000000000000010 &"
b00000000000000000000000000000001 )"
b00000000000000000000000000000010 ,"
1-"
b00000000000000000000000000000001 /"
b00000000000000000000000000000001 3"
b00000000000000000000000000000001 6"
b000010 8"
b000010 K"
#500000000
0"
0'
08
0a
0i
0-"
#600000000
1"
b00100000000010110000000000000011 $
b00000000000000000000000000000011 %
1'
b00100000000010110000000000000011 )
b00000000000000000000000000000011 *
b00100000000010110000000000000011 +
b00000000000000000000000000000011 ,
18
b00000000000000000000000000000011 A
b00100000000010110000000000000011 B
b00100000000010110000000000000011 E
b00000000000000000000000000000100 F
b00000000001011000000000000001100 H
b00000000000000000000000000000100 J
b00000000000000000000000000001000 L
b00000000000000000000000000000100 M
b00000000000000000000000000000011 N
b01011 O
b00000000000000000000000000000010 P
b00000000000000000000000000000011 R
b00000000000000000000000000000011 T
b00000000000000000000000000000010 V
b00000000000000000000000000000100 X
b00000000000000000000000000001000 Y
b00000000000000000000000000000100 [
b00000000000000000000000000000100 \
b00000000001011000000000000001100 ]
b00000000000000000000000000000100 _
b00000000000000000000000000000100 `
1a
b00000000000000000000000000000011 c
b000011 d
b00100000000010110000000000000011 e
b00000000000000000000000000000011 f
b00000000000000000000000000000100 h
1i
b01011 l
b01011 m
b00000000000000000000000000000010 n
b0000000000000011 s
b00000000000000000000000000000011 t
b01011 u
b01011 x
b00000000000000000000000000000011 z
b00000000000000000000000000000011 |
b00000000000000000000000000000011 }
b00000000000000000000000000000100 !"
b00000000000000000000000000000100 #"
b00000000000000000000000000001000 $"
b00000000000000000000000000000011 &"
b00000000000000000000000000000010 )"
b00000000000000000000000000000011 ,"
1-"
b00000000000000000000000000000010 /"
b00000000000000000000000000000010 3"
b00000000000000000000000000000010 6"
b000011 8"
b000011 K"
#700000000
0"
0'
08
0a
0i
0-"
#800000000
1"
b00100000000011000000000000000100 $
b00000000000000000000000000000100 %
1'
b00100000000011000000000000000100 )
b00000000000000000000000000000100 *
b00100000000011000000000000000100 +
b00000000000000000000000000000100 ,
18
b00000000000000000000000000000100 A
b00100000000011000000000000000100 B
b00100000000011000000000000000100 E
b00000000000000000000000000000101 F
b00000000001100000000000000010000 H
b00000000000000000000000000000101 J
b00000000000000000000000000001101 L
b00000000000000000000000000000101 M
b00000000000000000000000000000100 N
b01100 O
b00000000000000000000000000000011 P
b00000000000000000000000000000100 R
b00000000000000000000000000000100 T
b00000000000000000000000000001000 U
b00000000000000000000000000000011 V
b00000000000000000000000000000101 X
b00000000000000000000000000001101 Y
b00000000000000000000000000000101 [
b00000000000000000000000000000101 \
b00000000001100000000000000010000 ]
b00000000000000000000000000000101 _
b00000000000000000000000000000101 `
1a
b00000000000000000000000000000100 c
b000100 d
b00100000000011000000000000000100 e
b00000000000000000000000000000100 f
b00000000000000000000000000000101 h
1i
b01100 l
b01100 m
b00000000000000000000000000000011 n
b0000000000000100 s
b00000000000000000000000000000100 t
b01100 u
b01100 x
b00000000000000000000000000000100 z
b00000000000000000000000000000100 |
b00000000000000000000000000000100 }
b00000000000000000000000000001000 !"
b00000000000000000000000000001000 ""
b00000000000000000000000000000101 #"
b00000000000000000000000000001101 $"
b00000000000000000000000000000100 &"
b00000000000000000000000000000011 )"
b00000000000000000000000000000100 ,"
1-"
b00000000000000000000000000000011 /"
b00000000000000000000000000000011 3"
b00000000000000000000000000000011 6"
b000100 8"
b000100 K"
#900000000
0"
0'
08
0a
0i
0-"
#1000000000
1"
b00100000000011010000000000000101 $
b00000000000000000000000000000101 %
1'
b00100000000011010000000000000101 )
b00000000000000000000000000000101 *
b00100000000011010000000000000101 +
b00000000000000000000000000000101 ,
18
b00000000000000000000000000000101 A
b00100000000011010000000000000101 B
b00100000000011010000000000000101 E
b00000000000000000000000000000110 F
b00000000001101000000000000010100 H
b00000000000000000000000000000110 J
b00000000000000000000000000001110 L
b00000000000000000000000000000110 M
b00000000000000000000000000000101 N
b01101 O
b00000000000000000000000000000100 P
b00000000000000000000000000000101 R
b00000000000000000000000000000101 T
b00000000000000000000000000000100 V
b00000000000000000000000000000110 X
b00000000000000000000000000001110 Y
b00000000000000000000000000000110 [
b00000000000000000000000000000110 \
b00000000001101000000000000010100 ]
b00000000000000000000000000000110 _
b00000000000000000000000000000110 `
1a
b00000000000000000000000000000101 c
b000101 d
b00100000000011010000000000000101 e
b00000000000000000000000000000101 f
b00000000000000000000000000000110 h
1i
b01101 l
b01101 m
b00000000000000000000000000000100 n
b0000000000000101 s
b00000000000000000000000000000101 t
b01101 u
b01101 x
b00000000000000000000000000000101 z
b00000000000000000000000000000101 |
b00000000000000000000000000000101 }
b00000000000000000000000000001000 !"
b00000000000000000000000000000110 #"
b00000000000000000000000000001110 $"
b00000000000000000000000000000101 &"
b00000000000000000000000000000100 )"
b00000000000000000000000000000101 ,"
1-"
b00000000000000000000000000000100 /"
b00000000000000000000000000000100 3"
b00000000000000000000000000000100 6"
b000101 8"
b000101 K"
#1100000000
0"
0'
08
0a
0i
0-"
#1200000000
1"
b00100000000011100000000000000110 $
b00000000000000000000000000000110 %
1'
b00100000000011100000000000000110 )
b00000000000000000000000000000110 *
b00100000000011100000000000000110 +
b00000000000000000000000000000110 ,
18
b00000000000000000000000000000110 A
b00100000000011100000000000000110 B
b00100000000011100000000000000110 E
b00000000000000000000000000000111 F
b00000000001110000000000000011000 H
b00000000000000000000000000000111 J
b00000000000000000000000000010011 L
b00000000000000000000000000000111 M
b00000000000000000000000000000110 N
b01110 O
b00000000000000000000000000000101 P
b00000000000000000000000000000110 R
b00000000000000000000000000000110 T
b00000000000000000000000000001100 U
b00000000000000000000000000000101 V
b00000000000000000000000000000111 X
b00000000000000000000000000010011 Y
b00000000000000000000000000000111 [
b00000000000000000000000000000111 \
b00000000001110000000000000011000 ]
b00000000000000000000000000000111 _
b00000000000000000000000000000111 `
1a
b00000000000000000000000000000110 c
b000110 d
b00100000000011100000000000000110 e
b00000000000000000000000000000110 f
b00000000000000000000000000000111 h
1i
b01110 l
b01110 m
b00000000000000000000000000000101 n
b0000000000000110 s
b00000000000000000000000000000110 t
b01110 u
b01110 x
b00000000000000000000000000000110 z
b00000000000000000000000000000110 |
b00000000000000000000000000000110 }
b00000000000000000000000000001100 !"
b00000000000000000000000000001100 ""
b00000000000000000000000000000111 #"
b00000000000000000000000000010011 $"
b00000000000000000000000000000110 &"
b00000000000000000000000000000101 )"
b00000000000000000000000000000110 ,"
1-"
b00000000000000000000000000000101 /"
b00000000000000000000000000000101 3"
b00000000000000000000000000000101 6"
b000110 8"
b000110 K"
#1300000000
0"
0'
08
0a
0i
0-"
#1400000000
1"
b00100000000011110000000000000111 $
b00000000000000000000000000000111 %
1'
b00100000000011110000000000000111 )
b00000000000000000000000000000111 *
b00100000000011110000000000000111 +
b00000000000000000000000000000111 ,
18
b00000000000000000000000000000111 A
b00100000000011110000000000000111 B
b00100000000011110000000000000111 E
b00000000000000000000000000001000 F
b00000000001111000000000000011100 H
b00000000000000000000000000001000 J
b00000000000000000000000000010100 L
b00000000000000000000000000001000 M
b00000000000000000000000000000111 N
b01111 O
b00000000000000000000000000000110 P
b00000000000000000000000000000111 R
b00000000000000000000000000000111 T
b00000000000000000000000000000110 V
b00000000000000000000000000001000 X
b00000000000000000000000000010100 Y
b00000000000000000000000000001000 [
b00000000000000000000000000001000 \
b00000000001111000000000000011100 ]
b00000000000000000000000000001000 _
b00000000000000000000000000001000 `
1a
b00000000000000000000000000000111 c
b000111 d
b00100000000011110000000000000111 e
b00000000000000000000000000000111 f
b00000000000000000000000000001000 h
1i
b01111 l
b01111 m
b00000000000000000000000000000110 n
b0000000000000111 s
b00000000000000000000000000000111 t
b01111 u
b01111 x
b00000000000000000000000000000111 z
b00000000000000000000000000000111 |
b00000000000000000000000000000111 }
b00000000000000000000000000001100 !"
b00000000000000000000000000001000 #"
b00000000000000000000000000010100 $"
b00000000000000000000000000000111 &"
b00000000000000000000000000000110 )"
b00000000000000000000000000000111 ,"
1-"
b00000000000000000000000000000110 /"
b00000000000000000000000000000110 3"
b00000000000000000000000000000110 6"
b000111 8"
b000111 K"
#1500000000
0"
0'
08
0a
0i
0-"
#1600000000
1"
b10101100000010000000000000000000 $
b00000000000000000000000000001000 %
1'
b10101100000010000000000000000000 )
b00000000000000000000000000001000 *
b10101100000010000000000000000000 +
b00000000000000000000000000001000 ,
1.
02
18
0>
b00000000000000000000000000001000 A
b10101100000010000000000000000000 B
1C
b10101100000010000000000000000000 E
b00000000000000000000000000001001 F
b00000000001000000000000000000000 H
b00000000000000000000000000001001 J
b00000000000000000000000000001001 L
b00000000000000000000000000001001 M
b00000000000000000000000000001000 N
b01000 O
b00000000000000000000000000000111 P
b00000000000000000000000000000000 R
b00000000000000000000000000000000 T
b00000000000000000000000000000000 U
b00000000000000000000000000000111 V
b00000000000000000000000000001001 X
b00000000000000000000000000001001 Y
b00000000000000000000000000001001 [
b00000000000000000000000000001001 \
b00000000001000000000000000000000 ]
b00000000000000000000000000001001 _
b00000000000000000000000000001001 `
1a
b00000000000000000000000000001000 c
b001000 d
b10101100000010000000000000000000 e
b00000000000000000000000000001000 f
b00000000000000000000000000001001 h
1i
0j
b01000 l
b01000 m
b00000000000000000000000000000111 n
b0000000000000000 s
b00000000000000000000000000000000 t
b01000 u
b01000 x
b00000000000000000000000000000000 z
b00000000000000000000000000000000 |
b00000000000000000000000000000000 }
b00000000000000000000000000000000 !"
b00000000000000000000000000000000 ""
b00000000000000000000000000001001 #"
b00000000000000000000000000001001 $"
b00000000000000000000000000000000 &"
b00000000000000000000000000000111 )"
b00000000000000000000000000000000 ,"
1-"
1."
b00000000000000000000000000000111 /"
b00000000000000000000000000000111 3"
b00000000000000000000000000000111 6"
b101011 7"
b000000 8"
1:"
0="
b101011 B"
1D"
0H"
b000000 K"
#1700000000
0"
0'
08
0a
0i
b00000000000000000000000000000000 o
0-"
#1800000000
1"
b10101100000010010000000000000100 $
b00000000000000000000000000001001 %
1'
b10101100000010010000000000000100 )
b00000000000000000000000000001001 *
b10101100000010010000000000000100 +
b00000000000000000000000000001001 ,
18
b00000000000000000000000000001001 A
b10101100000010010000000000000100 B
b10101100000010010000000000000100 E
b00000000000000000000000000001010 F
1G
b00000000001001000000000000010000 H
b00000000000000000000000000001010 J
b00000000000000000000000000010010 L
b00000000000000000000000000001010 M
b00000000000000000000000000001001 N
b01001 O
b00000000000000000000000000000000 P
b00000000000000000000000000000100 R
b00000000000000000000000000000100 T
b00000000000000000000000000001000 U
b00000000000000000000000000000000 V
b00000000000000000000000000001010 X
b00000000000000000000000000010010 Y
b00000000000000000000000000001010 [
b00000000000000000000000000001010 \
b00000000001001000000000000010000 ]
b00000000000000000000000000001010 _
b00000000000000000000000000001010 `
1a
b00000000000000000000000000001001 c
b001001 d
b10101100000010010000000000000100 e
b00000000000000000000000000001001 f
b00000000000000000000000000001010 h
1i
b01001 l
b01001 m
b00000000000000000000000000000000 n
b00000000000000000000000000000000 o
b0000000000000100 s
b00000000000000000000000000000100 t
b01001 u
b01001 x
b00000000000000000000000000000100 z
b00000000000000000000000000000100 |
b00000000000000000000000000000100 }
b00000000000000000000000000001000 !"
b00000000000000000000000000001000 ""
b00000000000000000000000000001010 #"
b00000000000000000000000000010010 $"
b00000000000000000000000000000100 &"
1("
b00000000000000000000000000000000 )"
b00000000000000000000000000000100 ,"
1-"
b00000000000000000000000000000000 /"
b00000000000000000000000000000000 3"
b00000000000000000000000000000000 6"
b000100 8"
b000100 K"
#1900000000
0"
1#
0'
1(
08
1D
0a
0i
b00000000000000000000000000000000 o
0-"
12"
#2000000000
1"
b10101100000010100000000000001000 $
b00000000000000000000000000001010 %
1'
b10101100000010100000000000001000 )
b00000000000000000000000000001010 *
b10101100000010100000000000001000 +
b00000000000000000000000000001010 ,
18
b00000000000000000000000000001010 A
b10101100000010100000000000001000 B
b10101100000010100000000000001000 E
b00000000000000000000000000001011 F
0G
b00000000001010000000000000100000 H
b00000000000000000000000000001011 J
b00000000000000000000000000011011 L
b00000000000000000000000000001011 M
b00000000000000000000000000001010 N
b01010 O
b00000000000000000000000000000100 P
b00000000000000000000000000001000 R
b00000000000000000000000000001000 T
b00000000000000000000000000010000 U
b00000000000000000000000000000100 V
b00000000000000000000000000001011 X
b00000000000000000000000000011011 Y
b00000000000000000000000000001011 [
b00000000000000000000000000001011 \
b00000000001010000000000000100000 ]
b00000000000000000000000000001011 _
b00000000000000000000000000001011 `
1a
b00000000000000000000000000001010 c
b001010 d
b10101100000010100000000000001000 e
b00000000000000000000000000001010 f
b00000000000000000000000000001011 h
1i
b01010 l
b01010 m
b00000000000000000000000000000100 n
b00000000000000000000000000000000 o
b0000000000001000 s
b00000000000000000000000000001000 t
b01010 u
b01010 x
b00000000000000000000000000001000 z
b00000000000000000000000000001000 |
b00000000000000000000000000001000 }
b00000000000000000000000000010000 !"
b00000000000000000000000000010000 ""
b00000000000000000000000000001011 #"
b00000000000000000000000000011011 $"
b00000000000000000000000000001000 &"
0("
b00000000000000000000000000000100 )"
b00000000000000000000000000001000 ,"
1-"
b00000000000000000000000000000100 /"
b00000000000000000000000000000100 3"
b00000000000000000000000000000100 6"
b001000 8"
b001000 K"
#2100000000
0"
0'
08
b00000000000000000000000000000001 S
0a
0i
b00000000000000000000000000000000 o
b00000000000000000000000000000001 p
b00000000000000000000000000000001 y
0-"
b00000000000000000000000000000001 0"
#2200000000
1!
1"
0#
b00100000000010000000000000000000 $
b00000000000000000000000000000000 %
1&
1'
0(
b00100000000010000000000000000000 )
b00000000000000000000000000000000 *
b00100000000010000000000000000000 +
b00000000000000000000000000000000 ,
0.
12
18
19
1>
b00000000000000000000000000000000 A
b00100000000010000000000000000000 B
0C
0D
b00100000000010000000000000000000 E
b00000000000000000000000000000001 F
b00000000001000000000000000000000 H
b00000000000000000000000000000001 J
b00000000000000000000000000000001 L
b00000000000000000000000000000001 M
b00000000000000000000000000000000 N
b01000 O
b00000000000000000000000000001000 P
b00000000000000000000000000000000 R
b00000000000000000000000000000000 T
b00000000000000000000000000000000 U
b00000000000000000000000000001000 V
bUUUUUUUUUUUUUUUUUUUUUUUUUUUUUUUU W
b00000000000000000000000000000001 X
b00000000000000000000000000000001 Y
b00000000000000000000000000000001 [
b00000000000000000000000000000001 \
b00000000001000000000000000000000 ]
b00000000000000000000000000000001 _
b00000000000000000000000000000001 `
1a
1b
b00000000000000000000000000000000 c
b000000 d
b00100000000010000000000000000000 e
b00000000000000000000000000000000 f
b00000000000000000000000000000001 h
1i
1j
b01000 l
b01000 m
b00000000000000000000000000001000 n
b00000000000000000000000000000000 o
b0000000000000000 s
b00000000000000000000000000000000 t
b01000 u
b01000 x
b00000000000000000000000000000000 z
b00000000000000000000000000000000 |
b00000000000000000000000000000000 }
b00000000000000000000000000000000 !"
b00000000000000000000000000000000 ""
b00000000000000000000000000000001 #"
b00000000000000000000000000000001 $"
b00000000000000000000000000000000 &"
b00000000000000000000000000001000 )"
b00000000000000000000000000000000 ,"
1-"
0."
b00000000000000000000000000001000 /"
bUUUUUUUUUUUUUUUUUUUUUUUUUUUUUUUU 1"
02"
b00000000000000000000000000001000 3"
bUUUUUUUUUUUUUUUUUUUUUUUUUUUUUUUU 4"
b00000000000000000000000000001000 6"
b001000 7"
b000000 8"
0:"
1="
b001000 B"
0D"
1H"
b000000 K"
